{
	"info": {
		"_postman_id": "baddbde6-f651-4d38-86ca-121d340f7204",
		"name": "online Book Store",
		"schema": "https://schema.getpostman.com/json/collection/v2.1.0/collection.json",
		"_exporter_id": "15855566"
	},
	"item": [
		{
			"name": "01: register User",
			"request": {
				"method": "POST",
				"header": [],
				"body": {
					"mode": "raw",
					"raw": "{\n    \"email\":\"Admin100@bookstore.com\",\n    \"password\":\"232323\",\n    \"firstName\":\"rty\",\n    \"lastName\" : \"RTY\",\n    \"isAdmin\": true\n}",
					"options": {
						"raw": {
							"language": "json"
						}
					}
				},
				"url": {
					"raw": "{{url}}/api/register",
					"host": [
						"{{url}}"
					],
					"path": [
						"api",
						"register"
					]
				}
			},
			"response": []
		},
		{
			"name": "02: Get user details By User Id or Email",
			"request": {
				"method": "GET",
				"header": [
					{
						"key": "email",
						"value": "mrunmayi100@bookstore.com",
						"type": "text"
					},
					{
						"key": "userId",
						"value": "1",
						"type": "text",
						"disabled": true
					}
				],
				"url": {
					"raw": "http://localhost:9090/user/get",
					"protocol": "http",
					"host": [
						"localhost"
					],
					"port": "9090",
					"path": [
						"user",
						"get"
					]
				}
			},
			"response": []
		},
		{
			"name": "03: Block User",
			"request": {
				"method": "PUT",
				"header": [
					{
						"key": "userId",
						"value": "2",
						"type": "text"
					}
				],
				"url": {
					"raw": "{{url}}/user/block?adminId=26",
					"host": [
						"{{url}}"
					],
					"path": [
						"user",
						"block"
					],
					"query": [
						{
							"key": "adminId",
							"value": "26"
						}
					]
				}
			},
			"response": []
		},
		{
			"name": "04: Unblock User",
			"request": {
				"method": "PUT",
				"header": [
					{
						"key": "userId",
						"value": "2",
						"type": "text"
					}
				],
				"url": {
					"raw": "{{url}}/user/unblock?adminId=26",
					"host": [
						"{{url}}"
					],
					"path": [
						"user",
						"unblock"
					],
					"query": [
						{
							"key": "adminId",
							"value": "26"
						}
					]
				}
			},
			"response": []
		},
		{
			"name": "05: register All",
			"request": {
				"method": "POST",
				"header": [
					{
						"key": "",
						"value": "",
						"type": "text"
					}
				],
				"body": {
					"mode": "formdata",
					"formdata": [
						{
							"key": "multipartFile",
							"type": "file",
							"src": "/Users/mrunmayi/Documents/usercsvdata.csv"
						}
					]
				},
				"url": {
					"raw": "{{url}}/api/registerall",
					"host": [
						"{{url}}"
					],
					"path": [
						"api",
						"registerall"
					]
				}
			},
			"response": []
		}
	]
}